# Fdb version 3
["pdflatex"] 1668690257 "namespaces.tex" "namespaces.pdf" "namespaces" 1668690257
  "/usr/local/texlive/2022/texmf-dist/web2c/texmf.cnf" 1646502317 40171 cdab547de63d26590bebb3baff566530 ""
  "/usr/local/texlive/2022/texmf-var/web2c/pdftex/pdflatex.fmt" 1667088363 2826443 f2c2557c700b7089114a50b25b948099 ""
  "/usr/local/texlive/2022/texmf.cnf" 1647878952 577 209b46be99c9075fd74d4c0369380e8c ""
  "namespaces.aux" 1668690257 32 3985256e7290058c681f74d7a3565a19 ""
  "namespaces.tex" 1666174352 710 33bd95afddb72cf53193bf6285232e39 ""
  (generated)
  "namespaces.log"
  "namespaces.pdf"
