80 0.02 0.0 rapid zams end all

34.7 0.02  0.0 rapid zams end all
30 0.0001  0.0 rapid zams end all
35 0.0001  0.0 rapid zams end all
40 0.0001  0.0 rapid zams end all
45 0.0001  0.0 rapid zams end all
110 0.0001  0.0 rapid zams end all
120 0.0001  0.0 rapid zams end all
130 0.0001  0.0 rapid zams end all
25 0.0006  0.0 rapid zams end all
30 0.0006  0.0 rapid zams end all
35 0.0006  0.0 rapid zams end all
40 0.0006  0.0 rapid zams end all
45 0.0006  0.0 rapid zams end all
110 0.0006  0.0 rapid zams end all
120 0.0006  0.0 rapid zams end all
130 0.0006  0.0 rapid zams end all
25 0.0006  0.0 rapid zams end all
30 0.0006  0.0 rapid zams end all
35 0.0006  0.0 rapid zams end all
40 0.0006  0.0 rapid zams end all
45 0.0006  0.0 rapid zams end all
110 0.0006  0.0 rapid zams end all
120 0.0006  0.0 rapid zams end all
130 0.0006  0.0 rapid zams end all
8 0.0001  0.0 rapid zams end all
10 0.0001  0.0 rapid zams end all
12 0.0001  0.0 rapid zams end all
14 0.0001  0.0 rapid zams end all
16 0.0001  0.0 rapid zams end all
18 0.0001  0.0 rapid zams end all
20 0.0001  0.0 rapid zams end all
25 0.0001  0.0 rapid zams end all
30 0.0001  0.0 rapid zams end all
40 0.0001  0.0 rapid zams end all
50 0.0001  0.0 rapid zams end all
60 0.0001  0.0 rapid zams end all
80 0.0001  0.0 rapid zams end all
100 0.0001  0.0 rapid zams end all
8 0.0002  0.0 rapid zams end all
10 0.0002  0.0 rapid zams end all
12 0.0002  0.0 rapid zams end all
14 0.0002  0.0 rapid zams end all
16 0.0002  0.0 rapid zams end all
18 0.0002  0.0 rapid zams end all
20 0.0002  0.0 rapid zams end all
25 0.0002  0.0 rapid zams end all
30 0.0002  0.0 rapid zams end all
40 0.0002  0.0 rapid zams end all
50 0.0002  0.0 rapid zams end all
60 0.0002  0.0 rapid zams end all
80 0.0002  0.0 rapid zams end all
100 0.0002  0.0 rapid zams end all
8 0.001  0.0 rapid zams end all
10 0.001  0.0 rapid zams end all
12 0.001  0.0 rapid zams end all
14 0.001  0.0 rapid zams end all
16 0.001  0.0 rapid zams end all
18 0.001  0.0 rapid zams end all
20 0.001  0.0 rapid zams end all
25 0.001  0.0 rapid zams end all
30 0.001  0.0 rapid zams end all
40 0.001  0.0 rapid zams end all
50 0.001  0.0 rapid zams end all
60 0.001  0.0 rapid zams end all
80 0.001  0.0 rapid zams end all
100 0.001  0.0 rapid zams end all
8 0.003  0.0 rapid zams end all
10 0.003  0.0 rapid zams end all
12 0.003  0.0 rapid zams end all
14 0.003  0.0 rapid zams end all
16 0.003  0.0 rapid zams end all
18 0.003  0.0 rapid zams end all
20 0.003  0.0 rapid zams end all
25 0.003  0.0 rapid zams end all
30 0.003  0.0 rapid zams end all
40 0.003  0.0 rapid zams end all
50 0.003  0.0 rapid zams end all
60 0.003  0.0 rapid zams end all
80 0.003  0.0 rapid zams end all
100 0.003  0.0 rapid zams end all
8 0.006  0.0 rapid zams end all
10 0.006  0.0 rapid zams end all
12 0.006  0.0 rapid zams end all
14 0.006  0.0 rapid zams end all
16 0.006  0.0 rapid zams end all
18 0.006  0.0 rapid zams end all
20 0.006  0.0 rapid zams end all
25 0.006  0.0 rapid zams end all
30 0.006  0.0 rapid zams end all
40 0.006  0.0 rapid zams end all
50 0.006  0.0 rapid zams end all
60 0.006  0.0 rapid zams end all
80 0.006  0.0 rapid zams end all
100 0.006  0.0 rapid zams end all
8 0.01  0.0 rapid zams end all
10 0.01  0.0 rapid zams end all
12 0.01  0.0 rapid zams end all
14 0.01  0.0 rapid zams end all
16 0.01  0.0 rapid zams end all
18 0.01  0.0 rapid zams end all

20 0.01  0.0 rapid zams end all
25 0.01  0.0 rapid zams end all
30 0.01  0.0 rapid zams end all
40 0.01  0.0 rapid zams end all
50 0.01  0.0 rapid zams end all
60 0.01  0.0 rapid zams end all
80 0.01  0.0 rapid zams end all
100 0.01  0.0 rapid zams end all
8 0.017  0.0 rapid zams end all
10 0.017  0.0 rapid zams end all
12 0.017  0.0 rapid zams end all
14 0.017  0.0 rapid zams end all
16 0.017  0.0 rapid zams end all
18 0.017  0.0 rapid zams end all
20 0.017  0.0 rapid zams end all
25 0.017  0.0 rapid zams end all
30 0.017  0.0 rapid zams end all
40 0.017  0.0 rapid zams end all
50 0.017  0.0 rapid zams end all
60 0.017  0.0 rapid zams end all
80 0.017  0.0 rapid zams end all
100 0.017  0.0 rapid zams end all
8 0.02  0.0 rapid zams end all
10 0.02  0.0 rapid zams end all
12 0.02  0.0 rapid zams end all
14 0.02  0.0 rapid zams end all
16 0.02  0.0 rapid zams end all
18 0.02  0.0 rapid zams end all
20 0.02  0.0 rapid zams end all
25 0.02  0.0 rapid zams end all
30 0.02  0.0 rapid zams end all
40 0.02  0.0 rapid zams end all
50 0.02  0.0 rapid zams end all
60 0.02  0.0 rapid zams end all
80 0.02  0.0 rapid zams end all
100 0.02  0.0 rapid zams end all
