0.00000000e+00   0.00000000e+00   0.00000000e+00   0.00000000e+00   2.30760594e-01   2.12341668e-01   2.02206162e-01   2.13872025e-01   0.00000000e+00   2.16683385e-01   1.95466125e-01   1.96573042e-01   1.75164492e-01   1.46922224e-01   1.16759596e-01   9.16779514e-02   7.33971066e-02   5.80020843e-02   0.00000000e+00   0.00000000e+00   0.00000000e+00   0.00000000e+00   0.00000000e+00   0.00000000e+00   0.00000000e+00   0.00000000e+00   0.00000000e+00   0.00000000e+00   0.00000000e+00   0.00000000e+00   0.00000000e+00   0.00000000e+00   0.00000000e+00   0.00000000e+00   0.00000000e+00   0.00000000e+00   0.00000000e+00   0.00000000e+00   0.00000000e+00   0.00000000e+00   0.00000000e+00   0.00000000e+00   0.00000000e+00   0.00000000e+00   9.18523517e-02   1.23309775e-01   1.93271125e-01   2.16567878e-01   2.35148226e-01   2.41390149e-01   2.38667444e-01   2.27278722e-01   2.20420823e-01   2.14107163e-01   2.07514089e-01   2.03405413e-01   2.02554217e-01   1.92638359e-01   1.72236410e-01   1.43276135e-01   1.09870459e-01   6.38212976e-02   4.10911882e-02   0.00000000e+00   0.00000000e+00   6.76558072e-02   1.42181214e-01   1.46850458e-01   1.47665209e-01   1.71005088e-01   1.88849780e-01   1.77710057e-01   1.73544457e-01   1.71617260e-01   1.59928747e-01   1.77986961e-01   1.94891531e-01   2.06521736e-01   2.17702928e-01   2.30364163e-01   2.42284594e-01   2.57507833e-01   2.65152355e-01   2.70713518e-01   2.97401167e-01
0.00000000e+00   0.00000000e+00   0.00000000e+00   0.00000000e+00   2.46718911e-01   2.34917947e-01   2.31074385e-01   0.00000000e+00   2.25227022e-01   2.32182620e-01   2.19728331e-01   1.96470210e-01   1.61979835e-01   1.29545425e-01   1.01219979e-01   8.03507158e-02   6.62345073e-02   0.00000000e+00   0.00000000e+00   0.00000000e+00   0.00000000e+00   0.00000000e+00   0.00000000e+00   0.00000000e+00   0.00000000e+00   0.00000000e+00   0.00000000e+00   0.00000000e+00   0.00000000e+00   0.00000000e+00   0.00000000e+00   0.00000000e+00   0.00000000e+00   0.00000000e+00   0.00000000e+00   0.00000000e+00   0.00000000e+00   0.00000000e+00   0.00000000e+00   0.00000000e+00   9.63890278e-02   1.29706828e-01   1.92569919e-01   2.27042657e-01   2.47374585e-01   2.36730567e-01   2.31662657e-01   2.12356298e-01   1.78184285e-01   1.47104378e-01   1.06132153e-01   0.00000000e+00   0.00000000e+00   0.00000000e+00   0.00000000e+00   0.00000000e+00   5.37633436e-02   1.42274555e-01   1.43166907e-01   1.73191962e-01   1.92168884e-01   1.79649193e-01   1.59312525e-01   1.71908177e-01   2.02098009e-01   2.19410782e-01   2.25488531e-01   2.36835452e-01   2.48977580e-01   2.61365964e-01   2.73032410e-01   2.87141820e-01   2.99233629e-01   3.40621854e-01
0.00000000e+00   0.00000000e+00   0.00000000e+00   0.00000000e+00   2.60843176e-01   2.49624647e-01   2.43797267e-01   2.57339897e-01   2.47377125e-01   2.42879320e-01   2.42132300e-01   2.20950282e-01   1.86155908e-01   1.51197315e-01   1.18656293e-01   9.22377520e-02   7.23168266e-02   4.69549660e-02   0.00000000e+00   0.00000000e+00   0.00000000e+00   0.00000000e+00   0.00000000e+00   0.00000000e+00   0.00000000e+00   0.00000000e+00   0.00000000e+00   0.00000000e+00   0.00000000e+00   0.00000000e+00   0.00000000e+00   0.00000000e+00   0.00000000e+00   0.00000000e+00   0.00000000e+00   0.00000000e+00   0.00000000e+00   0.00000000e+00   0.00000000e+00   0.00000000e+00   0.00000000e+00   0.00000000e+00   0.00000000e+00   0.00000000e+00   1.05096015e-01   1.41845095e-01   2.01403009e-01   2.41103690e-01   2.56462647e-01   2.48949593e-01   2.45296743e-01   2.31432818e-01   1.94511682e-01   1.51017258e-01   1.11822908e-01   0.00000000e+00   0.00000000e+00   0.00000000e+00   0.00000000e+00   0.00000000e+00   0.00000000e+00   5.62144997e-02   1.30131567e-01   1.32602729e-01   1.72748592e-01   1.94736314e-01   1.89115700e-01   1.78847062e-01   1.56601265e-01   1.80743500e-01   2.24430998e-01   2.38858939e-01   2.45144293e-01   2.57096996e-01   2.69594838e-01   2.81424331e-01   2.94445475e-01   3.07211206e-01   3.22110107e-01   3.31889123e-01   1.43628020e-01
0.00000000e+00   0.00000000e+00   0.00000000e+00   0.00000000e+00   2.75424491e-01   2.60328650e-01   2.37613029e-01   2.62333461e-01   2.58631379e-01   2.49412707e-01   2.56103803e-01   2.36421606e-01   2.01856943e-01   1.62201720e-01   1.27815731e-01   9.97140509e-02   7.66110368e-02   0.00000000e+00   0.00000000e+00   0.00000000e+00   0.00000000e+00   0.00000000e+00   0.00000000e+00   0.00000000e+00   0.00000000e+00   0.00000000e+00   0.00000000e+00   0.00000000e+00   0.00000000e+00   0.00000000e+00   0.00000000e+00   0.00000000e+00   0.00000000e+00   0.00000000e+00   0.00000000e+00   0.00000000e+00   0.00000000e+00   0.00000000e+00   0.00000000e+00   0.00000000e+00   0.00000000e+00   0.00000000e+00   1.10360345e-01   1.48190378e-01   2.11949337e-01   2.55980778e-01   2.66522972e-01   2.59220028e-01   2.47058829e-01   2.00606624e-01   1.55726639e-01   1.06419932e-01   0.00000000e+00   0.00000000e+00   0.00000000e+00   0.00000000e+00   0.00000000e+00   0.00000000e+00   0.00000000e+00   5.42334622e-02   1.17414998e-01   1.21792923e-01   1.71254198e-01   1.93391152e-01   1.90406493e-01   1.71179642e-01   1.63603606e-01   2.05898230e-01   2.46885694e-01   2.60892535e-01   2.74404235e-01   2.86924194e-01   2.99385877e-01   3.12957068e-01   3.25938561e-01   3.41021100e-01   3.56126229e-01   3.58195884e-01   4.85049854e-01
0.00000000e+00   0.00000000e+00   0.00000000e+00   0.00000000e+00   2.84497222e-01   2.77160067e-01   2.69611976e-01   2.74429195e-01   2.58149163e-01   2.37996865e-01   1.97444020e-01   1.57539534e-01   1.19240733e-01   9.11674358e-02   6.71854175e-02   0.00000000e+00   0.00000000e+00   0.00000000e+00   0.00000000e+00   0.00000000e+00   0.00000000e+00   0.00000000e+00   0.00000000e+00   0.00000000e+00   0.00000000e+00   0.00000000e+00   0.00000000e+00   0.00000000e+00   0.00000000e+00   0.00000000e+00   0.00000000e+00   0.00000000e+00   0.00000000e+00   0.00000000e+00   0.00000000e+00   0.00000000e+00   0.00000000e+00   0.00000000e+00   0.00000000e+00   0.00000000e+00   0.00000000e+00   1.12680877e-01   1.54384112e-01   2.22577650e-01   2.67960664e-01   2.75897681e-01   2.68244102e-01   2.47328756e-01   1.96705240e-01   1.45721468e-01   4.62033622e-02   0.00000000e+00   0.00000000e+00   0.00000000e+00   0.00000000e+00   0.00000000e+00   0.00000000e+00   0.00000000e+00   0.00000000e+00   6.04486297e-02   9.79218996e-02   1.01367048e-01   1.67695072e-01   1.86691324e-01   1.86832906e-01   1.38774065e-01   1.71918660e-01   2.45370536e-01   2.67074654e-01   2.75781550e-01   2.88716316e-01   3.02108240e-01   3.15267540e-01   3.29521585e-01   3.43242369e-01   3.59191204e-01   3.76019615e-01   3.78197702e-01   4.17586019e-02
0.00000000e+00   0.00000000e+00   0.00000000e+00   0.00000000e+00   2.99205397e-01   2.91699176e-01   2.82826312e-01   2.92123732e-01   2.74445499e-01   2.28166478e-01   1.87767405e-01   1.42939060e-01   1.06204729e-01   8.27086458e-02   0.00000000e+00   0.00000000e+00   0.00000000e+00   0.00000000e+00   0.00000000e+00   0.00000000e+00   0.00000000e+00   0.00000000e+00   0.00000000e+00   0.00000000e+00   0.00000000e+00   0.00000000e+00   0.00000000e+00   0.00000000e+00   0.00000000e+00   0.00000000e+00   0.00000000e+00   0.00000000e+00   0.00000000e+00   0.00000000e+00   0.00000000e+00   0.00000000e+00   0.00000000e+00   0.00000000e+00   0.00000000e+00   0.00000000e+00   0.00000000e+00   0.00000000e+00   0.00000000e+00   0.00000000e+00   0.00000000e+00   1.25537384e-01   1.71328874e-01   2.33205495e-01   2.86301709e-01   2.78274690e-01   2.52702801e-01   2.03138733e-01   1.46038923e-01   0.00000000e+00   0.00000000e+00   0.00000000e+00   0.00000000e+00   0.00000000e+00   0.00000000e+00   0.00000000e+00   0.00000000e+00   6.52059010e-02   8.71804226e-02   9.31729144e-02   1.65590714e-01   1.85812634e-01   1.85016494e-01   1.11165066e-01   1.72864382e-01   2.34022887e-01   2.74786350e-01   2.90764196e-01   3.03915209e-01   3.17022319e-01   3.31227599e-01   3.45345900e-01   3.61053017e-01   3.77050448e-01   3.94189928e-01   1.97246893e-01
0.00000000e+00   0.00000000e+00   0.00000000e+00   0.00000000e+00   3.18620738e-01   3.07275987e-01   2.96495425e-01   3.08603997e-01   2.79083204e-01   2.24047698e-01   1.74953544e-01   1.34568441e-01   1.03129109e-01   7.42176126e-02   0.00000000e+00   0.00000000e+00   0.00000000e+00   0.00000000e+00   0.00000000e+00   0.00000000e+00   0.00000000e+00   0.00000000e+00   0.00000000e+00   0.00000000e+00   0.00000000e+00   0.00000000e+00   0.00000000e+00   0.00000000e+00   0.00000000e+00   0.00000000e+00   0.00000000e+00   0.00000000e+00   0.00000000e+00   0.00000000e+00   0.00000000e+00   0.00000000e+00   0.00000000e+00   0.00000000e+00   0.00000000e+00   0.00000000e+00   0.00000000e+00   0.00000000e+00   0.00000000e+00   1.20044924e-01   1.66848681e-01   2.46967675e-01   2.95267053e-01   2.85278311e-01   2.48637218e-01   1.88055149e-01   1.23613971e-01   0.00000000e+00   0.00000000e+00   0.00000000e+00   0.00000000e+00   0.00000000e+00   0.00000000e+00   0.00000000e+00   0.00000000e+00   7.28747604e-02   1.36477273e-01   1.42098001e-01   1.96771465e-01   2.19776572e-01   2.17140739e-01   1.78190429e-01   1.83491712e-01   2.75098321e-01   2.96082908e-01   3.02860202e-01   3.16481259e-01   3.31169676e-01   3.45426020e-01   3.61465571e-01   3.77878788e-01   3.96973326e-01   4.06346614e-01   5.31391823e-01
0.00000000e+00   0.00000000e+00   0.00000000e+00   0.00000000e+00   3.34717884e-01   3.22260167e-01   3.15542833e-01   3.23214011e-01   2.77759895e-01   2.09136036e-01   1.58772873e-01   1.21125663e-01   8.50545361e-02   0.00000000e+00   0.00000000e+00   0.00000000e+00   0.00000000e+00   0.00000000e+00   0.00000000e+00   0.00000000e+00   0.00000000e+00   0.00000000e+00   0.00000000e+00   0.00000000e+00   0.00000000e+00   0.00000000e+00   0.00000000e+00   0.00000000e+00   0.00000000e+00   0.00000000e+00   0.00000000e+00   0.00000000e+00   0.00000000e+00   0.00000000e+00   0.00000000e+00   0.00000000e+00   0.00000000e+00   0.00000000e+00   0.00000000e+00   0.00000000e+00   0.00000000e+00   0.00000000e+00   4.88950709e-02   1.32010678e-01   1.80363524e-01   2.57584437e-01   3.03883898e-01   2.91220401e-01   2.31487641e-01   1.67825625e-01   0.00000000e+00   0.00000000e+00   0.00000000e+00   0.00000000e+00   0.00000000e+00   0.00000000e+00   0.00000000e+00   0.00000000e+00   7.80232668e-02   1.66629075e-01   1.69942811e-01   2.20261003e-01   2.35381145e-01   1.93547465e-01   1.87533076e-01   2.68906442e-01   3.01283180e-01   3.14191570e-01   3.28788951e-01   3.43946880e-01   3.61047654e-01   3.78070065e-01   3.96986677e-01   4.17826224e-01   6.90806652e-01
0.00000000e+00   0.00000000e+00   0.00000000e+00   0.00000000e+00   3.50703968e-01   3.39946446e-01   3.31878861e-01   3.45977644e-01   2.68020046e-01   2.05447156e-01   1.53963257e-01   1.10968876e-01   7.44899684e-02   0.00000000e+00   0.00000000e+00   0.00000000e+00   0.00000000e+00   0.00000000e+00   0.00000000e+00   0.00000000e+00   0.00000000e+00   0.00000000e+00   0.00000000e+00   0.00000000e+00   0.00000000e+00   0.00000000e+00   0.00000000e+00   0.00000000e+00   0.00000000e+00   0.00000000e+00   0.00000000e+00   0.00000000e+00   0.00000000e+00   0.00000000e+00   0.00000000e+00   0.00000000e+00   0.00000000e+00   0.00000000e+00   0.00000000e+00   0.00000000e+00   0.00000000e+00   1.36840262e-01   1.88284962e-01   2.69109870e-01   3.14106863e-01   2.92270630e-01   2.26834196e-01   1.61743553e-01   0.00000000e+00   0.00000000e+00   0.00000000e+00   0.00000000e+00   0.00000000e+00   0.00000000e+00   0.00000000e+00   0.00000000e+00   8.55378717e-02   1.74699017e-01   1.79756070e-01   2.29824476e-01   2.43547207e-01   1.99833760e-01   1.56547121e-01   2.05789591e-01   2.78500851e-01   3.12990980e-01   3.25510657e-01   3.40411572e-01   3.56550455e-01   3.74933458e-01   3.91927331e-01   4.12640108e-01   4.31574927e-01   1.63734451e-01
0.00000000e+00   0.00000000e+00   3.80849073e-01   0.00000000e+00   0.00000000e+00   2.83783460e-01   2.41424701e-01   1.73580803e-01   1.32269121e-01   9.30846264e-02   0.00000000e+00   0.00000000e+00   0.00000000e+00   0.00000000e+00   0.00000000e+00   0.00000000e+00   0.00000000e+00   0.00000000e+00   0.00000000e+00   0.00000000e+00   0.00000000e+00   0.00000000e+00   0.00000000e+00   0.00000000e+00   0.00000000e+00   0.00000000e+00   0.00000000e+00   0.00000000e+00   0.00000000e+00   0.00000000e+00   0.00000000e+00   0.00000000e+00   0.00000000e+00   0.00000000e+00   0.00000000e+00   0.00000000e+00   0.00000000e+00   0.00000000e+00   0.00000000e+00   0.00000000e+00   0.00000000e+00   1.56587488e-01   2.08626168e-01   2.79673140e-01   3.22172725e-01   3.00437491e-01   2.29368268e-01   1.57678552e-01   0.00000000e+00   0.00000000e+00   0.00000000e+00   0.00000000e+00   0.00000000e+00   0.00000000e+00   0.00000000e+00   0.00000000e+00   0.00000000e+00   8.81083564e-02   1.75558482e-01   1.79473348e-01   2.33542190e-01   2.49603482e-01   1.97677404e-01   1.38934478e-01   2.09968155e-01   2.77771819e-01   3.24244870e-01   3.36845029e-01   3.52960719e-01   3.69453980e-01   3.88241392e-01   4.07016217e-01   4.30371203e-01   4.44275809e-01   1.08696742e+00
0.00000000e+00   4.21787814e-01   4.17229292e-01   4.09476577e-01   0.00000000e+00   0.00000000e+00   2.51756762e-01   2.31649295e-01   1.65373325e-01   1.23369333e-01   7.55217978e-02   0.00000000e+00   0.00000000e+00   0.00000000e+00   0.00000000e+00   0.00000000e+00   0.00000000e+00   0.00000000e+00   0.00000000e+00   0.00000000e+00   0.00000000e+00   0.00000000e+00   0.00000000e+00   0.00000000e+00   0.00000000e+00   0.00000000e+00   0.00000000e+00   0.00000000e+00   0.00000000e+00   0.00000000e+00   0.00000000e+00   0.00000000e+00   0.00000000e+00   0.00000000e+00   0.00000000e+00   0.00000000e+00   0.00000000e+00   0.00000000e+00   0.00000000e+00   0.00000000e+00   1.49762232e-01   2.05584899e-01   2.93139132e-01   3.31757026e-01   3.09859683e-01   2.30364249e-01   1.57420395e-01   0.00000000e+00   0.00000000e+00   0.00000000e+00   0.00000000e+00   0.00000000e+00   0.00000000e+00   0.00000000e+00   0.00000000e+00   0.00000000e+00   0.00000000e+00   9.51338560e-02   1.71455537e-01   1.76078725e-01   2.33137746e-01   2.49286147e-01   1.88247910e-01   0.00000000e+00   9.08035588e-02   1.99761447e-01   2.50338844e-01   2.83528188e-01   3.35894578e-01   3.46887172e-01   3.63823408e-01   3.82017263e-01   4.00918394e-01   4.21791220e-01   4.39175524e-01   4.56705850e-01   0.00000000e+00
0.00000000e+00   4.53178558e-01   4.55739827e-01   4.30638703e-01   3.92015604e-01   3.74245796e-01   2.73359690e-01   1.80688245e-01   1.28979161e-01   4.73497685e-02   0.00000000e+00   0.00000000e+00   0.00000000e+00   0.00000000e+00   0.00000000e+00   0.00000000e+00   0.00000000e+00   0.00000000e+00   0.00000000e+00   0.00000000e+00   0.00000000e+00   0.00000000e+00   0.00000000e+00   0.00000000e+00   0.00000000e+00   0.00000000e+00   0.00000000e+00   0.00000000e+00   0.00000000e+00   0.00000000e+00   0.00000000e+00   0.00000000e+00   0.00000000e+00   0.00000000e+00   0.00000000e+00   0.00000000e+00   0.00000000e+00   0.00000000e+00   0.00000000e+00   0.00000000e+00   0.00000000e+00   0.00000000e+00   1.71716255e-01   2.28599194e-01   3.20663680e-01   3.51603896e-01   3.45491174e-01   2.66289246e-01   1.85578218e-01   0.00000000e+00   0.00000000e+00   0.00000000e+00   0.00000000e+00   0.00000000e+00   0.00000000e+00   0.00000000e+00   0.00000000e+00   0.00000000e+00   0.00000000e+00   0.00000000e+00   1.19568561e-01   1.81316491e-01   1.88461164e-01   2.53962145e-01   2.71309585e-01   1.88818359e-01   0.00000000e+00   0.00000000e+00   0.00000000e+00   0.00000000e+00   0.00000000e+00   1.37514759e-01   2.25168021e-01   2.77012921e-01   3.13762835e-01   3.36652694e-01   3.66982324e-01   3.74457041e-01   3.95445323e-01   4.16653864e-01   4.39214642e-01   4.60099370e-01   4.63476417e-01   4.75349799e-01   4.87927372e-01   4.98825051e-01
0.00000000e+00   4.97312825e-01   4.71131084e-01   4.13401912e-01   3.49677844e-01   3.16948778e-01   2.34924472e-01   1.72875357e-01   1.26344567e-01   5.44847146e-02   0.00000000e+00   0.00000000e+00   0.00000000e+00   0.00000000e+00   0.00000000e+00   0.00000000e+00   0.00000000e+00   0.00000000e+00   0.00000000e+00   0.00000000e+00   0.00000000e+00   0.00000000e+00   0.00000000e+00   0.00000000e+00   0.00000000e+00   0.00000000e+00   0.00000000e+00   0.00000000e+00   0.00000000e+00   0.00000000e+00   0.00000000e+00   0.00000000e+00   0.00000000e+00   0.00000000e+00   0.00000000e+00   0.00000000e+00   0.00000000e+00   0.00000000e+00   0.00000000e+00   0.00000000e+00   1.96754158e-01   2.60979422e-01   3.47764439e-01   3.72642166e-01   3.74877989e-01   3.41871233e-01   2.53458783e-01   1.62886601e-01   0.00000000e+00   0.00000000e+00   0.00000000e+00   0.00000000e+00   0.00000000e+00   0.00000000e+00   0.00000000e+00   0.00000000e+00   0.00000000e+00   0.00000000e+00   0.00000000e+00   0.00000000e+00   0.00000000e+00   1.40027176e-01   1.58992723e-01   1.61598219e-01   2.38209119e-01   2.77943794e-01   1.60328881e-01   0.00000000e+00   0.00000000e+00   0.00000000e+00   0.00000000e+00   0.00000000e+00   0.00000000e+00   0.00000000e+00   1.02155222e-01   2.39865275e-01   2.96981443e-01   3.43153559e-01   3.57447681e-01   3.95546604e-01   4.16558089e-01   4.38360099e-01   4.63713229e-01   4.79151358e-01   4.84145962e-01   5.01420909e-01   5.14626815e-01   3.11865268e-01
5.03077873e-01   5.36974979e-01   4.67960756e-01   3.95817216e-01   3.30018396e-01   2.75737148e-01   2.20555647e-01   1.65672066e-01   1.13040051e-01   0.00000000e+00   0.00000000e+00   0.00000000e+00   0.00000000e+00   0.00000000e+00   0.00000000e+00   0.00000000e+00   0.00000000e+00   0.00000000e+00   0.00000000e+00   0.00000000e+00   0.00000000e+00   0.00000000e+00   0.00000000e+00   0.00000000e+00   0.00000000e+00   0.00000000e+00   0.00000000e+00   0.00000000e+00   0.00000000e+00   0.00000000e+00   0.00000000e+00   0.00000000e+00   0.00000000e+00   0.00000000e+00   0.00000000e+00   0.00000000e+00   0.00000000e+00   0.00000000e+00   0.00000000e+00   0.00000000e+00   0.00000000e+00   2.06029673e-01   2.75135305e-01   3.46983790e-01   3.79576411e-01   3.96535871e-01   3.95203836e-01   3.37845936e-01   2.51105900e-01   1.39672805e-01   0.00000000e+00   0.00000000e+00   0.00000000e+00   0.00000000e+00   0.00000000e+00   0.00000000e+00   0.00000000e+00   0.00000000e+00   0.00000000e+00   0.00000000e+00   0.00000000e+00   0.00000000e+00   0.00000000e+00   1.11448079e-01   1.33915273e-01   2.47805853e-01   2.90006043e-01   1.90586892e-01   0.00000000e+00   0.00000000e+00   0.00000000e+00   0.00000000e+00   0.00000000e+00   0.00000000e+00   0.00000000e+00   0.00000000e+00   1.19824644e-01   2.59825868e-01   3.19709100e-01   3.71998093e-01   3.84294328e-01   4.02093134e-01   4.27153902e-01   4.52016352e-01   4.78820220e-01   5.00927817e-01   5.26852104e-01   5.35375062e-01   5.51305236e-01   3.14228573e-01
5.36738834e-01   5.41522982e-01   4.66016476e-01   3.82289193e-01   3.02666283e-01   2.43706458e-01   1.88317032e-01   1.43394947e-01   0.00000000e+00   0.00000000e+00   0.00000000e+00   0.00000000e+00   0.00000000e+00   0.00000000e+00   0.00000000e+00   0.00000000e+00   0.00000000e+00   0.00000000e+00   0.00000000e+00   0.00000000e+00   0.00000000e+00   0.00000000e+00   0.00000000e+00   0.00000000e+00   0.00000000e+00   0.00000000e+00   0.00000000e+00   0.00000000e+00   0.00000000e+00   0.00000000e+00   0.00000000e+00   0.00000000e+00   0.00000000e+00   0.00000000e+00   0.00000000e+00   0.00000000e+00   0.00000000e+00   0.00000000e+00   0.00000000e+00   0.00000000e+00   2.40535919e-01   3.07438459e-01   4.03949142e-01   4.18009006e-01   4.20589579e-01   3.79166954e-01   2.91425860e-01   2.00355501e-01   0.00000000e+00   0.00000000e+00   0.00000000e+00   0.00000000e+00   0.00000000e+00   0.00000000e+00   0.00000000e+00   0.00000000e+00   0.00000000e+00   0.00000000e+00   0.00000000e+00   0.00000000e+00   0.00000000e+00   0.00000000e+00   0.00000000e+00   0.00000000e+00   0.00000000e+00   1.75549423e-01   2.55849189e-01   2.86323622e-01   2.12296543e-01   0.00000000e+00   0.00000000e+00   0.00000000e+00   0.00000000e+00   0.00000000e+00   0.00000000e+00   0.00000000e+00   0.00000000e+00   0.00000000e+00   1.12201010e-01   2.76626969e-01   3.39780091e-01   4.00974391e-01   4.11778804e-01   4.34051392e-01   4.55272769e-01   4.82538713e-01   5.21878217e-01   5.38413355e-01   5.58990054e-01   5.69791177e-01   5.77031597e-01   8.34981303e-01
5.53567045e-01   5.24345177e-01   4.40957263e-01   3.53247934e-01   2.83556536e-01   2.20599867e-01   1.66225019e-01   1.15009521e-01   0.00000000e+00   0.00000000e+00   0.00000000e+00   0.00000000e+00   0.00000000e+00   0.00000000e+00   0.00000000e+00   0.00000000e+00   0.00000000e+00   0.00000000e+00   0.00000000e+00   0.00000000e+00   0.00000000e+00   0.00000000e+00   0.00000000e+00   0.00000000e+00   0.00000000e+00   0.00000000e+00   0.00000000e+00   0.00000000e+00   0.00000000e+00   0.00000000e+00   0.00000000e+00   0.00000000e+00   0.00000000e+00   0.00000000e+00   0.00000000e+00   0.00000000e+00   0.00000000e+00   0.00000000e+00   0.00000000e+00   0.00000000e+00   0.00000000e+00   2.50589770e-01   3.21585946e-01   4.16787497e-01   4.28953900e-01   4.29296266e-01   3.77761430e-01   2.94898491e-01   2.07766793e-01   0.00000000e+00   0.00000000e+00   0.00000000e+00   0.00000000e+00   0.00000000e+00   0.00000000e+00   0.00000000e+00   0.00000000e+00   0.00000000e+00   0.00000000e+00   0.00000000e+00   0.00000000e+00   0.00000000e+00   0.00000000e+00   0.00000000e+00   0.00000000e+00   0.00000000e+00   1.33253157e-01   2.55930496e-01   2.77495080e-01   2.02340667e-01   0.00000000e+00   0.00000000e+00   0.00000000e+00   0.00000000e+00   0.00000000e+00   0.00000000e+00   0.00000000e+00   0.00000000e+00   0.00000000e+00   1.16931582e-01   2.98330824e-01   3.57280978e-01   4.10374176e-01   4.22558338e-01   4.44985101e-01   4.65099113e-01   4.93765993e-01   5.26984095e-01   5.42786609e-01   5.74201945e-01   5.91618992e-01   6.85129054e-01
5.68786287e-01   5.38177878e-01   4.54135990e-01   3.61947270e-01   2.68607571e-01   2.05241764e-01   1.66621077e-01   1.08142521e-01   0.00000000e+00   0.00000000e+00   0.00000000e+00   0.00000000e+00   0.00000000e+00   0.00000000e+00   0.00000000e+00   0.00000000e+00   0.00000000e+00   0.00000000e+00   0.00000000e+00   0.00000000e+00   0.00000000e+00   0.00000000e+00   0.00000000e+00   0.00000000e+00   0.00000000e+00   0.00000000e+00   0.00000000e+00   0.00000000e+00   0.00000000e+00   0.00000000e+00   0.00000000e+00   0.00000000e+00   0.00000000e+00   0.00000000e+00   0.00000000e+00   0.00000000e+00   0.00000000e+00   0.00000000e+00   0.00000000e+00   0.00000000e+00   1.36116568e-01   2.65134374e-01   3.32979078e-01   4.25226717e-01   4.36521838e-01   4.36923375e-01   3.83757692e-01   2.99855586e-01   2.06072091e-01   0.00000000e+00   0.00000000e+00   0.00000000e+00   0.00000000e+00   0.00000000e+00   0.00000000e+00   0.00000000e+00   0.00000000e+00   0.00000000e+00   0.00000000e+00   0.00000000e+00   0.00000000e+00   0.00000000e+00   0.00000000e+00   0.00000000e+00   0.00000000e+00   0.00000000e+00   0.00000000e+00   1.46816256e-01   2.68447956e-01   2.91043352e-01   2.24070766e-01   0.00000000e+00   0.00000000e+00   0.00000000e+00   0.00000000e+00   0.00000000e+00   0.00000000e+00   0.00000000e+00   0.00000000e+00   0.00000000e+00   1.13976089e-01   2.94614719e-01   3.57943569e-01   4.21798458e-01   4.33841528e-01   4.57644036e-01   4.76343228e-01   5.05153460e-01   5.33930589e-01   5.49970876e-01   5.87711544e-01   6.03252220e-01   4.50913148e-01
5.84720023e-01   5.20624986e-01   4.32290314e-01   3.24472925e-01   2.36406406e-01   1.67338267e-01   1.05627767e-01   0.00000000e+00   0.00000000e+00   0.00000000e+00   0.00000000e+00   0.00000000e+00   0.00000000e+00   0.00000000e+00   0.00000000e+00   0.00000000e+00   0.00000000e+00   0.00000000e+00   0.00000000e+00   0.00000000e+00   0.00000000e+00   0.00000000e+00   0.00000000e+00   0.00000000e+00   0.00000000e+00   0.00000000e+00   0.00000000e+00   0.00000000e+00   0.00000000e+00   0.00000000e+00   0.00000000e+00   0.00000000e+00   0.00000000e+00   0.00000000e+00   0.00000000e+00   0.00000000e+00   0.00000000e+00   0.00000000e+00   0.00000000e+00   1.12486073e-01   2.78188617e-01   3.53429031e-01   4.28209572e-01   4.55660537e-01   4.64865603e-01   4.45392502e-01   3.47085431e-01   3.02191936e-01   2.50932934e-01   0.00000000e+00   0.00000000e+00   0.00000000e+00   0.00000000e+00   0.00000000e+00   0.00000000e+00   0.00000000e+00   0.00000000e+00   0.00000000e+00   0.00000000e+00   0.00000000e+00   0.00000000e+00   0.00000000e+00   0.00000000e+00   0.00000000e+00   0.00000000e+00   0.00000000e+00   0.00000000e+00   0.00000000e+00   2.73305700e-01   3.25132613e-01   2.95405799e-01   0.00000000e+00   0.00000000e+00   0.00000000e+00   0.00000000e+00   0.00000000e+00   0.00000000e+00   0.00000000e+00   0.00000000e+00   1.42376496e-01   3.25574716e-01   3.91449424e-01   4.51714174e-01   4.65414647e-01   4.89852867e-01   5.07678924e-01   5.42460143e-01   5.54090403e-01   9.19745896e-01
5.78244640e-01   5.17213559e-01   4.10173330e-01   3.10660610e-01   2.10495329e-01   1.12298295e-01   0.00000000e+00   0.00000000e+00   0.00000000e+00   0.00000000e+00   0.00000000e+00   0.00000000e+00   0.00000000e+00   0.00000000e+00   0.00000000e+00   0.00000000e+00   0.00000000e+00   0.00000000e+00   0.00000000e+00   0.00000000e+00   0.00000000e+00   0.00000000e+00   0.00000000e+00   0.00000000e+00   0.00000000e+00   0.00000000e+00   0.00000000e+00   0.00000000e+00   0.00000000e+00   0.00000000e+00   0.00000000e+00   0.00000000e+00   0.00000000e+00   0.00000000e+00   0.00000000e+00   0.00000000e+00   0.00000000e+00   0.00000000e+00   0.00000000e+00   0.00000000e+00   0.00000000e+00   0.00000000e+00   3.05522082e-01   3.80644045e-01   4.76863932e-01   4.87338458e-01   4.78402710e-01   3.88598040e-01   3.22353804e-01   2.27228973e-01   0.00000000e+00   0.00000000e+00   0.00000000e+00   0.00000000e+00   0.00000000e+00   0.00000000e+00   0.00000000e+00   0.00000000e+00   0.00000000e+00   0.00000000e+00   0.00000000e+00   0.00000000e+00   0.00000000e+00   0.00000000e+00   0.00000000e+00   0.00000000e+00   0.00000000e+00   0.00000000e+00   0.00000000e+00   0.00000000e+00   1.86918983e-01   3.36317920e-01   3.41740795e-01   2.07487344e-01   0.00000000e+00   0.00000000e+00   0.00000000e+00   0.00000000e+00   0.00000000e+00   0.00000000e+00   0.00000000e+00   0.00000000e+00   2.90340649e-01   3.47281758e-01   4.15367242e-01   4.76940484e-01   4.89005859e-01   5.18606423e-01   5.35254946e-01   5.68436177e-01   6.24707457e-01
5.87389534e-01   5.00575505e-01   3.94092735e-01   2.95562334e-01   2.13533114e-01   1.44036393e-01   8.04345192e-02   0.00000000e+00   0.00000000e+00   0.00000000e+00   0.00000000e+00   0.00000000e+00   0.00000000e+00   0.00000000e+00   0.00000000e+00   0.00000000e+00   0.00000000e+00   0.00000000e+00   0.00000000e+00   0.00000000e+00   0.00000000e+00   0.00000000e+00   0.00000000e+00   0.00000000e+00   0.00000000e+00   0.00000000e+00   0.00000000e+00   0.00000000e+00   0.00000000e+00   0.00000000e+00   0.00000000e+00   0.00000000e+00   0.00000000e+00   0.00000000e+00   0.00000000e+00   0.00000000e+00   0.00000000e+00   0.00000000e+00   0.00000000e+00   0.00000000e+00   1.37899820e-01   3.25445331e-01   4.03114401e-01   5.00217149e-01   5.09708488e-01   5.03639524e-01   4.16086503e-01   3.49046238e-01   3.42582788e-01   0.00000000e+00   0.00000000e+00   0.00000000e+00   0.00000000e+00   0.00000000e+00   0.00000000e+00   0.00000000e+00   0.00000000e+00   0.00000000e+00   0.00000000e+00   0.00000000e+00   0.00000000e+00   0.00000000e+00   0.00000000e+00   0.00000000e+00   0.00000000e+00   0.00000000e+00   0.00000000e+00   0.00000000e+00   0.00000000e+00   2.02111177e-01   3.70152434e-01   3.74719342e-01   2.12914148e-01   0.00000000e+00   0.00000000e+00   0.00000000e+00   0.00000000e+00   0.00000000e+00   0.00000000e+00   3.30220968e-01   3.80704530e-01   4.47083300e-01   5.00262828e-01   5.13217529e-01   5.42647834e-01   5.58324097e-01   5.89015544e-01   6.04373343e-01   5.94890025e-01   5.93664649e-01   4.61641915e-01
5.50511322e-01   4.70494616e-01   3.66027079e-01   2.92237258e-01   2.04837113e-01   1.35334082e-01   0.00000000e+00   0.00000000e+00   0.00000000e+00   0.00000000e+00   0.00000000e+00   0.00000000e+00   0.00000000e+00   0.00000000e+00   0.00000000e+00   0.00000000e+00   0.00000000e+00   0.00000000e+00   0.00000000e+00   0.00000000e+00   0.00000000e+00   0.00000000e+00   0.00000000e+00   0.00000000e+00   0.00000000e+00   0.00000000e+00   0.00000000e+00   0.00000000e+00   0.00000000e+00   0.00000000e+00   0.00000000e+00   0.00000000e+00   0.00000000e+00   0.00000000e+00   0.00000000e+00   0.00000000e+00   0.00000000e+00   0.00000000e+00   0.00000000e+00   0.00000000e+00   0.00000000e+00   2.13286127e-01   3.81304218e-01   4.57744308e-01   5.45870375e-01   5.55766731e-01   5.44034755e-01   4.55633809e-01   4.27552995e-01   3.55064493e-01   0.00000000e+00   0.00000000e+00   0.00000000e+00   0.00000000e+00   0.00000000e+00   0.00000000e+00   0.00000000e+00   0.00000000e+00   0.00000000e+00   0.00000000e+00   0.00000000e+00   0.00000000e+00   0.00000000e+00   0.00000000e+00   0.00000000e+00   0.00000000e+00   0.00000000e+00   0.00000000e+00   0.00000000e+00   0.00000000e+00   0.00000000e+00   2.18423116e-01   4.45067316e-01   4.61356779e-01   4.94547734e-01   5.72149384e-01   6.16693438e-01   6.36838059e-01   6.52700415e-01   6.62269580e-01   6.80136420e-01
5.54666638e-01   4.89640031e-01   3.72245261e-01   3.01036445e-01   2.21828121e-01   1.41141875e-01   0.00000000e+00   0.00000000e+00   0.00000000e+00   0.00000000e+00   0.00000000e+00   0.00000000e+00   0.00000000e+00   0.00000000e+00   0.00000000e+00   0.00000000e+00   0.00000000e+00   0.00000000e+00   0.00000000e+00   0.00000000e+00   0.00000000e+00   0.00000000e+00   0.00000000e+00   0.00000000e+00   0.00000000e+00   0.00000000e+00   0.00000000e+00   0.00000000e+00   0.00000000e+00   0.00000000e+00   0.00000000e+00   0.00000000e+00   0.00000000e+00   0.00000000e+00   0.00000000e+00   0.00000000e+00   0.00000000e+00   0.00000000e+00   0.00000000e+00   0.00000000e+00   0.00000000e+00   0.00000000e+00   1.86478562e-01   4.24190795e-01   4.94350100e-01   5.65359849e-01   5.93267151e-01   6.02996194e-01   5.74380982e-01   5.01721346e-01   4.75830563e-01   3.55609463e-01   0.00000000e+00   0.00000000e+00   0.00000000e+00   0.00000000e+00   0.00000000e+00   0.00000000e+00   0.00000000e+00   0.00000000e+00   0.00000000e+00   0.00000000e+00   0.00000000e+00   0.00000000e+00   0.00000000e+00   0.00000000e+00   0.00000000e+00   0.00000000e+00   0.00000000e+00   0.00000000e+00   0.00000000e+00   0.00000000e+00   0.00000000e+00   0.00000000e+00   2.63519760e-01   4.36293075e-01   4.20052166e-01   5.28419573e-01   5.15674562e-01   5.63268034e-01   6.00285532e-01   6.38402193e-01   6.80620789e-01   6.94139755e-01   7.07403035e-01   7.19824143e-01
5.32499124e-01   4.55344955e-01   3.57621780e-01   2.82577405e-01   0.00000000e+00   0.00000000e+00   0.00000000e+00   0.00000000e+00   0.00000000e+00   0.00000000e+00   0.00000000e+00   0.00000000e+00   0.00000000e+00   0.00000000e+00   0.00000000e+00   0.00000000e+00   0.00000000e+00   0.00000000e+00   0.00000000e+00   0.00000000e+00   0.00000000e+00   0.00000000e+00   0.00000000e+00   0.00000000e+00   0.00000000e+00   0.00000000e+00   0.00000000e+00   0.00000000e+00   0.00000000e+00   0.00000000e+00   0.00000000e+00   0.00000000e+00   0.00000000e+00   0.00000000e+00   0.00000000e+00   0.00000000e+00   0.00000000e+00   0.00000000e+00   0.00000000e+00   0.00000000e+00   0.00000000e+00   0.00000000e+00   2.73943821e-01   5.58473263e-01   6.12478249e-01   6.74170679e-01   6.91324562e-01   6.24672012e-01   6.06017566e-01   6.27424310e-01   4.02340610e-01   0.00000000e+00   0.00000000e+00   0.00000000e+00   0.00000000e+00   0.00000000e+00   0.00000000e+00   0.00000000e+00   0.00000000e+00   0.00000000e+00   0.00000000e+00   0.00000000e+00   0.00000000e+00   0.00000000e+00   0.00000000e+00   0.00000000e+00   0.00000000e+00   0.00000000e+00   0.00000000e+00   0.00000000e+00   0.00000000e+00   0.00000000e+00   0.00000000e+00   0.00000000e+00   0.00000000e+00   0.00000000e+00   0.00000000e+00   0.00000000e+00   0.00000000e+00   2.99256450e-01   5.71044508e-01   6.09845547e-01   6.58545216e-01   6.95607713e-01   7.26802861e-01   7.55620241e-01   7.92865279e-01   8.24791859e-01
5.73835041e-01   4.98345595e-01   3.98874728e-01   3.15198694e-01   0.00000000e+00   0.00000000e+00   0.00000000e+00   0.00000000e+00   0.00000000e+00   0.00000000e+00   0.00000000e+00   0.00000000e+00   0.00000000e+00   0.00000000e+00   0.00000000e+00   0.00000000e+00   0.00000000e+00   0.00000000e+00   0.00000000e+00   0.00000000e+00   0.00000000e+00   0.00000000e+00   0.00000000e+00   0.00000000e+00   0.00000000e+00   0.00000000e+00   0.00000000e+00   0.00000000e+00   0.00000000e+00   0.00000000e+00   0.00000000e+00   0.00000000e+00   0.00000000e+00   0.00000000e+00   0.00000000e+00   0.00000000e+00   0.00000000e+00   0.00000000e+00   0.00000000e+00   0.00000000e+00   0.00000000e+00   0.00000000e+00   0.00000000e+00   0.00000000e+00   0.00000000e+00   0.00000000e+00   0.00000000e+00   0.00000000e+00   0.00000000e+00   0.00000000e+00   0.00000000e+00   0.00000000e+00   0.00000000e+00   0.00000000e+00   0.00000000e+00   0.00000000e+00   0.00000000e+00   0.00000000e+00   0.00000000e+00   0.00000000e+00   0.00000000e+00   0.00000000e+00   0.00000000e+00   0.00000000e+00   5.76047704e-01   6.60694026e-01   7.09298367e-01   7.32495836e-01   7.63506882e-01   8.61321211e-01   8.96834640e-01   9.18729476e-01
5.99133432e-01   5.41211766e-01   4.28764470e-01   3.55817414e-01   0.00000000e+00   0.00000000e+00   0.00000000e+00   0.00000000e+00   0.00000000e+00   0.00000000e+00   0.00000000e+00   0.00000000e+00   0.00000000e+00   0.00000000e+00   0.00000000e+00   0.00000000e+00   0.00000000e+00   0.00000000e+00   0.00000000e+00   0.00000000e+00   0.00000000e+00   0.00000000e+00   0.00000000e+00   0.00000000e+00   0.00000000e+00   0.00000000e+00   0.00000000e+00   0.00000000e+00   0.00000000e+00   0.00000000e+00   0.00000000e+00   0.00000000e+00   0.00000000e+00   0.00000000e+00   0.00000000e+00   0.00000000e+00   0.00000000e+00   0.00000000e+00   0.00000000e+00   0.00000000e+00   0.00000000e+00   0.00000000e+00   0.00000000e+00   0.00000000e+00   0.00000000e+00   0.00000000e+00   0.00000000e+00   0.00000000e+00   0.00000000e+00   0.00000000e+00   0.00000000e+00   0.00000000e+00   0.00000000e+00   0.00000000e+00   0.00000000e+00   0.00000000e+00   0.00000000e+00   5.57452039e-01   8.86844438e-01   8.05775473e-01   8.28735730e-01   8.66353511e-01   9.61357521e-01   9.98525696e-01   1.01962077e+00
5.20536407e-01   4.99428352e-01   4.28893171e-01   3.82485028e-01   0.00000000e+00   0.00000000e+00   0.00000000e+00   0.00000000e+00   0.00000000e+00   0.00000000e+00   0.00000000e+00   0.00000000e+00   0.00000000e+00   0.00000000e+00   0.00000000e+00   0.00000000e+00   0.00000000e+00   0.00000000e+00   0.00000000e+00   0.00000000e+00   0.00000000e+00   0.00000000e+00   0.00000000e+00   0.00000000e+00   0.00000000e+00   0.00000000e+00   0.00000000e+00   0.00000000e+00   0.00000000e+00   0.00000000e+00   0.00000000e+00   0.00000000e+00   0.00000000e+00   0.00000000e+00   0.00000000e+00   0.00000000e+00   0.00000000e+00   0.00000000e+00   0.00000000e+00   0.00000000e+00   0.00000000e+00   0.00000000e+00   0.00000000e+00   0.00000000e+00   0.00000000e+00   0.00000000e+00   0.00000000e+00   0.00000000e+00   0.00000000e+00   0.00000000e+00   0.00000000e+00   0.00000000e+00   0.00000000e+00   0.00000000e+00   6.86093604e-01   1.01632030e+00   8.99111961e-01   9.19560617e-01   9.68024414e-01   1.04493952e+00   1.09900761e+00   1.10897620e+00
5.65874391e-01   5.57975549e-01   4.83311239e-01   4.36569982e-01   0.00000000e+00   0.00000000e+00   0.00000000e+00   0.00000000e+00   0.00000000e+00   0.00000000e+00   0.00000000e+00   0.00000000e+00   0.00000000e+00   0.00000000e+00   0.00000000e+00   0.00000000e+00   0.00000000e+00   0.00000000e+00   0.00000000e+00   0.00000000e+00   0.00000000e+00   0.00000000e+00   0.00000000e+00   0.00000000e+00   0.00000000e+00   0.00000000e+00   0.00000000e+00   0.00000000e+00   0.00000000e+00   0.00000000e+00   0.00000000e+00   0.00000000e+00   0.00000000e+00   0.00000000e+00   0.00000000e+00   0.00000000e+00   0.00000000e+00   0.00000000e+00   0.00000000e+00   0.00000000e+00   0.00000000e+00   0.00000000e+00   0.00000000e+00   0.00000000e+00   0.00000000e+00   0.00000000e+00   0.00000000e+00   0.00000000e+00   0.00000000e+00   4.46101928e-01   0.00000000e+00   0.00000000e+00   0.00000000e+00   0.00000000e+00   7.25551241e-01   1.07300933e+00   9.75436732e-01   1.00111142e+00   1.03504467e+00   1.11889075e+00   1.17374656e+00   1.19279076e+00   1.19424583e+00
6.69436110e-01   5.03692322e-01   0.00000000e+00   0.00000000e+00   0.00000000e+00   0.00000000e+00   0.00000000e+00   0.00000000e+00   0.00000000e+00   0.00000000e+00   0.00000000e+00   0.00000000e+00   0.00000000e+00   0.00000000e+00   0.00000000e+00   0.00000000e+00   0.00000000e+00   0.00000000e+00   0.00000000e+00   0.00000000e+00   0.00000000e+00   0.00000000e+00   0.00000000e+00   0.00000000e+00   0.00000000e+00   0.00000000e+00   0.00000000e+00   0.00000000e+00   0.00000000e+00   0.00000000e+00   0.00000000e+00   0.00000000e+00   0.00000000e+00   0.00000000e+00   0.00000000e+00   0.00000000e+00   0.00000000e+00   0.00000000e+00   0.00000000e+00   0.00000000e+00   0.00000000e+00   0.00000000e+00   0.00000000e+00   0.00000000e+00   0.00000000e+00   0.00000000e+00   0.00000000e+00   0.00000000e+00   3.38854319e-01   1.05573505e+00   1.00765755e+00   1.01502050e+00   1.10211826e+00   1.10434314e+00   1.14851541e+00
4.04620334e-01   4.58462330e-01   0.00000000e+00   0.00000000e+00   0.00000000e+00   0.00000000e+00   0.00000000e+00   0.00000000e+00   0.00000000e+00   0.00000000e+00   0.00000000e+00   0.00000000e+00   0.00000000e+00   0.00000000e+00   0.00000000e+00   0.00000000e+00   0.00000000e+00   0.00000000e+00   0.00000000e+00   0.00000000e+00   0.00000000e+00   0.00000000e+00   0.00000000e+00   0.00000000e+00   0.00000000e+00   0.00000000e+00   0.00000000e+00   0.00000000e+00   0.00000000e+00   0.00000000e+00   0.00000000e+00   0.00000000e+00   0.00000000e+00   0.00000000e+00   0.00000000e+00   0.00000000e+00   0.00000000e+00   0.00000000e+00   0.00000000e+00   0.00000000e+00   0.00000000e+00   0.00000000e+00   0.00000000e+00   0.00000000e+00   0.00000000e+00   0.00000000e+00   0.00000000e+00   0.00000000e+00   0.00000000e+00   0.00000000e+00   0.00000000e+00   1.32391822e+00   1.14914204e+00   1.14579891e+00   1.14915276e+00
5.19993397e-01   0.00000000e+00   0.00000000e+00   0.00000000e+00   7.36160783e-01   0.00000000e+00   0.00000000e+00   0.00000000e+00   0.00000000e+00   0.00000000e+00   0.00000000e+00   0.00000000e+00   0.00000000e+00   0.00000000e+00   0.00000000e+00   0.00000000e+00   0.00000000e+00   0.00000000e+00   0.00000000e+00   0.00000000e+00   0.00000000e+00   0.00000000e+00   0.00000000e+00   0.00000000e+00   0.00000000e+00   0.00000000e+00   0.00000000e+00   0.00000000e+00   0.00000000e+00   0.00000000e+00   0.00000000e+00   0.00000000e+00   0.00000000e+00   0.00000000e+00   0.00000000e+00   0.00000000e+00   0.00000000e+00   0.00000000e+00   0.00000000e+00   0.00000000e+00   0.00000000e+00   0.00000000e+00   0.00000000e+00   0.00000000e+00   5.33444807e-01   1.25732592e+00   1.26794310e+00   1.26964029e+00   1.28803199e+00   1.27577338e+00   1.27638004e+00
6.53024791e-01   0.00000000e+00   0.00000000e+00   0.00000000e+00   3.44616054e-01   0.00000000e+00   0.00000000e+00   0.00000000e+00   0.00000000e+00   0.00000000e+00   0.00000000e+00   0.00000000e+00   0.00000000e+00   0.00000000e+00   0.00000000e+00   0.00000000e+00   0.00000000e+00   0.00000000e+00   0.00000000e+00   0.00000000e+00   0.00000000e+00   0.00000000e+00   0.00000000e+00   0.00000000e+00   0.00000000e+00   0.00000000e+00   0.00000000e+00   0.00000000e+00   0.00000000e+00   0.00000000e+00   0.00000000e+00   0.00000000e+00   0.00000000e+00   0.00000000e+00   0.00000000e+00   0.00000000e+00   0.00000000e+00   0.00000000e+00   0.00000000e+00   0.00000000e+00   0.00000000e+00   0.00000000e+00   0.00000000e+00   0.00000000e+00   0.00000000e+00   1.34537706e+00   1.36125209e+00   1.36250509e+00   1.36740036e+00   1.33836358e+00   1.32773626e+00
0.00000000e+00   0.00000000e+00   0.00000000e+00   0.00000000e+00   3.59355655e-01   2.55510652e-01   0.00000000e+00   0.00000000e+00   0.00000000e+00   0.00000000e+00   0.00000000e+00   0.00000000e+00   0.00000000e+00   0.00000000e+00   0.00000000e+00   0.00000000e+00   0.00000000e+00   0.00000000e+00   0.00000000e+00   0.00000000e+00   0.00000000e+00   0.00000000e+00   0.00000000e+00   0.00000000e+00   0.00000000e+00   0.00000000e+00   0.00000000e+00   0.00000000e+00   0.00000000e+00   0.00000000e+00   0.00000000e+00   0.00000000e+00   0.00000000e+00   0.00000000e+00   0.00000000e+00   0.00000000e+00   0.00000000e+00   0.00000000e+00   0.00000000e+00   0.00000000e+00   0.00000000e+00   0.00000000e+00   0.00000000e+00   0.00000000e+00   2.55483493e+00   2.47211899e+00   0.00000000e+00   5.82961850e-01   4.63727922e-01   6.61292801e-01   0.00000000e+00   7.65352091e-01   7.84461811e-01   1.42370161e+00   1.37955980e+00   1.34517557e+00
0.00000000e+00   0.00000000e+00   0.00000000e+00   0.00000000e+00   3.44657048e-01   2.73924710e-01   0.00000000e+00   0.00000000e+00   0.00000000e+00   0.00000000e+00   0.00000000e+00   0.00000000e+00   0.00000000e+00   0.00000000e+00   0.00000000e+00   0.00000000e+00   0.00000000e+00   0.00000000e+00   0.00000000e+00   0.00000000e+00   0.00000000e+00   0.00000000e+00   0.00000000e+00   0.00000000e+00   0.00000000e+00   0.00000000e+00   0.00000000e+00   0.00000000e+00   0.00000000e+00   0.00000000e+00   0.00000000e+00   0.00000000e+00   0.00000000e+00   0.00000000e+00   0.00000000e+00   0.00000000e+00   0.00000000e+00   0.00000000e+00   0.00000000e+00   0.00000000e+00   0.00000000e+00   0.00000000e+00   4.30440414e-01   0.00000000e+00   0.00000000e+00   1.23004156e+00   1.51856723e+00   3.56472057e-01   2.35801823e+00   2.63459003e-01   0.00000000e+00   0.00000000e+00   0.00000000e+00   0.00000000e+00   0.00000000e+00   0.00000000e+00   7.99889147e-01   0.00000000e+00   5.78893340e-01   1.40105580e+00   1.35331247e+00
0.00000000e+00   0.00000000e+00   0.00000000e+00   0.00000000e+00   3.61934412e-01   2.74551108e-01   0.00000000e+00   0.00000000e+00   0.00000000e+00   0.00000000e+00   0.00000000e+00   0.00000000e+00   0.00000000e+00   0.00000000e+00   0.00000000e+00   0.00000000e+00   0.00000000e+00   0.00000000e+00   0.00000000e+00   0.00000000e+00   0.00000000e+00   0.00000000e+00   0.00000000e+00   0.00000000e+00   0.00000000e+00   0.00000000e+00   0.00000000e+00   0.00000000e+00   0.00000000e+00   0.00000000e+00   0.00000000e+00   0.00000000e+00   0.00000000e+00   0.00000000e+00   0.00000000e+00   0.00000000e+00   0.00000000e+00   0.00000000e+00   0.00000000e+00   0.00000000e+00   0.00000000e+00   0.00000000e+00   0.00000000e+00   0.00000000e+00   0.00000000e+00   3.06375750e+00   6.57777240e-01   1.61218389e+00   1.62909287e+00   1.39069932e+00   1.61343659e-01   0.00000000e+00   0.00000000e+00   0.00000000e+00   0.00000000e+00   0.00000000e+00   0.00000000e+00   0.00000000e+00   0.00000000e+00   0.00000000e+00   0.00000000e+00   0.00000000e+00   0.00000000e+00   0.00000000e+00   0.00000000e+00   0.00000000e+00   0.00000000e+00   0.00000000e+00   0.00000000e+00   0.00000000e+00   0.00000000e+00   0.00000000e+00   0.00000000e+00   0.00000000e+00   0.00000000e+00   0.00000000e+00   0.00000000e+00   0.00000000e+00   0.00000000e+00   0.00000000e+00   0.00000000e+00   1.45773036e+00   1.44849666e+00   1.30759157e+00   1.28783836e+00   1.38829227e+00   1.28584074e+00   1.36601025e+00   1.29571986e+00   1.37692131e+00   1.29932218e+00   1.33120281e+00   1.28408910e+00   1.31072128e+00   1.27835393e+00   1.29659958e+00   1.27199729e+00   1.33759731e+00   1.28454728e+00   1.36104360e+00   1.28087412e+00   1.33993823e+00   1.28038620e+00   1.29684803e+00   1.25837513e+00   1.25737625e+00   1.30563648e+00   1.26444776e+00   1.24607934e+00   1.30324281e+00   1.25496777e+00   1.30784673e+00   1.25322040e+00   1.29716642e+00   1.25045014e+00   1.23440952e+00   1.28796660e+00   1.23852124e+00   1.28582175e+00   1.22893872e+00   1.26148392e+00   1.20772900e+00   1.26241537e+00   1.23432352e+00   1.26911184e+00   1.22728299e+00   1.25610861e+00   1.22345550e+00   1.24703709e+00   1.21893582e+00   1.21168132e+00   1.24348049e+00   1.21037649e+00   1.23715716e+00   1.21867318e+00   1.24050787e+00   1.30516557e+00   1.51574535e+00   1.55506196e+00   1.49789898e+00   1.53338645e+00   1.47838405e+00   1.47997783e+00   1.53976993e+00   1.60678261e+00   1.52849466e+00   1.55583235e+00   1.63095858e+00   1.56608139e+00   1.61042589e+00   1.81060310e+00
0.00000000e+00   0.00000000e+00   0.00000000e+00   0.00000000e+00   4.04477614e-01   2.96642394e-01   2.62540536e-01   0.00000000e+00   0.00000000e+00   0.00000000e+00   0.00000000e+00   0.00000000e+00   0.00000000e+00   0.00000000e+00   0.00000000e+00   0.00000000e+00   0.00000000e+00   0.00000000e+00   0.00000000e+00   0.00000000e+00   0.00000000e+00   0.00000000e+00   0.00000000e+00   0.00000000e+00   0.00000000e+00   0.00000000e+00   0.00000000e+00   0.00000000e+00   0.00000000e+00   0.00000000e+00   0.00000000e+00   0.00000000e+00   0.00000000e+00   0.00000000e+00   0.00000000e+00   0.00000000e+00   0.00000000e+00   0.00000000e+00   0.00000000e+00   0.00000000e+00   0.00000000e+00   0.00000000e+00   0.00000000e+00   4.29172428e-01   0.00000000e+00   3.52175459e-01   0.00000000e+00   1.52145746e+00   1.59268359e+00   1.53460947e+00   0.00000000e+00   0.00000000e+00   0.00000000e+00   0.00000000e+00   0.00000000e+00   0.00000000e+00   0.00000000e+00   0.00000000e+00   0.00000000e+00   0.00000000e+00   0.00000000e+00   0.00000000e+00   0.00000000e+00   0.00000000e+00   0.00000000e+00   0.00000000e+00   0.00000000e+00   0.00000000e+00   0.00000000e+00   0.00000000e+00   0.00000000e+00   0.00000000e+00   0.00000000e+00   0.00000000e+00   0.00000000e+00   0.00000000e+00   0.00000000e+00   0.00000000e+00   0.00000000e+00   0.00000000e+00   0.00000000e+00   0.00000000e+00   0.00000000e+00   0.00000000e+00   0.00000000e+00   0.00000000e+00   0.00000000e+00   0.00000000e+00   0.00000000e+00   0.00000000e+00   0.00000000e+00   0.00000000e+00   3.77270031e-01   6.06353880e-01   0.00000000e+00   1.49246570e+00   1.49570716e+00   1.25939425e+00   1.26488241e+00   1.28267898e+00   1.27299924e+00   1.29167282e+00   1.27510216e+00   1.30288633e+00   1.26694635e+00   1.37944016e+00   1.26084592e+00   1.39488871e+00   1.31676857e+00   1.56288459e+00   1.45386212e+00   1.58782740e+00   1.44407413e+00   1.54964898e+00   1.43011544e+00   1.53684015e+00   1.44913095e+00   1.53386592e+00   1.44441093e+00   1.53874108e+00   1.44138570e+00   1.52638442e+00   1.43097594e+00   1.52150774e+00   1.42913662e+00   1.51006179e+00   1.42647436e+00   1.50532494e+00   1.41379593e+00   1.48989588e+00   1.41087090e+00   1.48494651e+00   1.40924658e+00   1.47393007e+00   1.40075595e+00   1.47037631e+00   1.39508806e+00   1.45245971e+00   1.38570564e+00   1.44814180e+00   1.38378015e+00   1.44330101e+00   1.38242871e+00   1.45107550e+00   1.38392322e+00   1.46434617e+00   1.38744986e+00   1.34444852e+00   1.40625885e+00   1.33322565e+00   1.39360740e+00   1.33501707e+00   1.39092836e+00   1.33059407e+00   1.38002033e+00   1.32653766e+00   1.37851926e+00   1.32109917e+00   1.36530063e+00   1.31657922e+00   1.36261703e+00   1.31012116e+00   1.34700953e+00   1.30595131e+00   1.33434562e+00   1.30112485e+00   1.28322141e+00   1.32376624e+00   1.28219132e+00   1.31569568e+00   1.27929338e+00   1.26904763e+00   1.25472582e+00   1.26842668e+00   1.25367110e+00   1.25390392e+00   1.26446666e+00   1.31008580e+00   1.33785169e+00   1.50077182e+00   1.43294267e+00   1.49576055e+00   1.42705686e+00   1.47105414e+00   1.56764309e+00   1.54688437e+00   1.73851029e+00   1.67663459e+00   1.99055044e+00   2.23906131e+00   2.30179244e+00   2.30776163e+00   2.69936438e+00
0.00000000e+00   0.00000000e+00   0.00000000e+00   0.00000000e+00   0.00000000e+00   5.76751852e-01   4.42924975e-01   3.53081509e-01   3.12163585e-01   3.71014762e-01   0.00000000e+00   0.00000000e+00   0.00000000e+00   0.00000000e+00   0.00000000e+00   0.00000000e+00   0.00000000e+00   0.00000000e+00   0.00000000e+00   0.00000000e+00   0.00000000e+00   0.00000000e+00   0.00000000e+00   0.00000000e+00   0.00000000e+00   0.00000000e+00   0.00000000e+00   0.00000000e+00   0.00000000e+00   0.00000000e+00   0.00000000e+00   0.00000000e+00   0.00000000e+00   0.00000000e+00   0.00000000e+00   0.00000000e+00   0.00000000e+00   0.00000000e+00   0.00000000e+00   0.00000000e+00   2.70835141e-01   9.06053085e-01   2.37476700e+00   1.80596993e+00   1.83363237e+00   1.83435186e+00   1.87777407e+00   1.77817189e+00   1.58128529e+00   1.42641189e+00   1.29884780e+00   1.32720364e+00   1.29787300e+00   1.30888076e+00   1.31956155e+00   1.31689819e+00   1.31768351e+00   1.57688422e+00   1.31016681e+00   1.58813276e+00   1.57400773e+00   1.30788337e+00   1.57280047e+00   1.59509791e+00   1.31163717e+00   1.60349658e+00   1.30921477e+00   1.59227937e+00   1.31595260e+00   1.57485143e+00   1.32000959e+00   1.63119377e+00   1.61348358e+00   1.31519618e+00   1.63785380e+00   1.30594690e+00   1.27603858e+00   1.28606614e+00   1.27647060e+00   1.30036485e+00   1.30579254e+00   1.33247475e+00   1.30195672e+00   1.33026227e+00   1.30114433e+00   1.32204072e+00   1.30030698e+00   1.31531660e+00   1.29750122e+00   1.31002426e+00   1.29709013e+00   1.30068557e+00   1.28543627e+00   1.30157765e+00   1.31362268e+00   1.28745292e+00   1.27712886e+00   1.28846691e+00   1.27280774e+00   1.28610805e+00   1.27081626e+00   1.27729681e+00   1.26405886e+00   1.27260040e+00   1.26759759e+00   1.26083730e+00   1.26540487e+00   1.26479246e+00   1.26834656e+00   1.26163929e+00   1.26825993e+00   1.26436741e+00   1.26723548e+00   1.26842452e+00   1.26894108e+00   1.26997401e+00   1.27475103e+00   1.26941959e+00   1.28088513e+00   1.27588334e+00   1.28286621e+00   1.28365614e+00   1.30956968e+00   1.38590181e+00   1.49087157e+00   1.77339059e+00   1.70499114e+00   1.79067755e+00   1.86559483e+00   1.90034626e+00   1.99161549e+00   1.98160681e+00   2.20658129e+00   2.50861836e+00   2.65546544e+00   2.69190053e+00   3.31209848e+00
0.00000000e+00   0.00000000e+00   0.00000000e+00   0.00000000e+00   0.00000000e+00   6.20480287e-01   5.56536870e-01   4.86414373e-01   4.09974924e-01   3.48993461e-01   3.07811439e-01   0.00000000e+00   0.00000000e+00   0.00000000e+00   0.00000000e+00   0.00000000e+00   0.00000000e+00   0.00000000e+00   0.00000000e+00   0.00000000e+00   0.00000000e+00   0.00000000e+00   0.00000000e+00   0.00000000e+00   0.00000000e+00   0.00000000e+00   0.00000000e+00   0.00000000e+00   0.00000000e+00   0.00000000e+00   0.00000000e+00   0.00000000e+00   1.43971165e-01   1.77199934e-01   2.00044929e-01   0.00000000e+00   0.00000000e+00   0.00000000e+00   0.00000000e+00   0.00000000e+00   0.00000000e+00   0.00000000e+00   0.00000000e+00   0.00000000e+00   2.70255698e-01   2.37227167e+00   1.95718380e+00   1.98449742e+00   1.67196160e+00   1.67486746e+00   1.81975134e+00   1.47603775e+00   1.28752893e+00   1.28399440e+00   1.29838414e+00   1.47030574e+00   1.36567255e+00   1.46067329e+00   1.38603249e+00   1.37169001e+00   1.47297732e+00   1.39048513e+00   1.40768277e+00   1.51945151e+00   1.43315708e+00   1.53933209e+00   1.44566054e+00   1.49746062e+00   1.43358734e+00   1.45279485e+00   1.41241825e+00   1.39510285e+00   1.43984673e+00   1.40074685e+00   1.38460325e+00   1.46833788e+00   1.40050975e+00   1.37167057e+00   1.47634526e+00   1.38657188e+00   1.40302402e+00   1.38275354e+00   1.36515143e+00   1.39142058e+00   1.35573598e+00   1.41554342e+00   1.36469243e+00   1.34601756e+00   1.40869920e+00   1.35624819e+00   1.34700091e+00   1.37779323e+00   1.33645021e+00   1.37583328e+00   1.29770772e+00   1.33245004e+00   1.30836959e+00   1.34593486e+00   1.30762851e+00   1.33460865e+00   1.30366632e+00   1.32732706e+00   1.30198335e+00   1.31608893e+00   1.30341430e+00   1.30311090e+00   1.30119618e+00   1.29509450e+00   1.33009665e+00   1.28463889e+00   1.27108643e+00   1.26723573e+00   1.33200412e+00   1.27644890e+00   1.33361221e+00   1.28561582e+00   1.33846329e+00   1.28964021e+00   1.30321089e+00   1.36970375e+00   1.32828885e+00   1.33823490e+00   1.33807481e+00   1.33635289e+00   1.34602336e+00   1.38897098e+00   1.44774280e+00   1.43686876e+00   1.55523068e+00   1.62425517e+00   1.56325570e+00   1.68297538e+00   1.62969424e+00   1.66661051e+00   1.72869124e+00   1.80509511e+00   1.71438577e+00   1.87219789e+00   1.75144038e+00   1.86615385e+00   1.93420145e+00
0.00000000e+00   0.00000000e+00   0.00000000e+00   1.54310679e+00   1.68541110e+00   0.00000000e+00   6.29144433e-01   5.59267843e-01   4.33595228e-01   3.79583312e-01   3.49794674e-01   5.98561412e-01   0.00000000e+00   0.00000000e+00   0.00000000e+00   0.00000000e+00   0.00000000e+00   0.00000000e+00   0.00000000e+00   0.00000000e+00   0.00000000e+00   0.00000000e+00   0.00000000e+00   0.00000000e+00   0.00000000e+00   0.00000000e+00   0.00000000e+00   0.00000000e+00   0.00000000e+00   0.00000000e+00   0.00000000e+00   0.00000000e+00   0.00000000e+00   1.38395487e-01   1.67381285e-01   1.90171253e-01   2.14503602e-01   2.41547743e-01   0.00000000e+00   0.00000000e+00   0.00000000e+00   0.00000000e+00   0.00000000e+00   0.00000000e+00   0.00000000e+00   0.00000000e+00   0.00000000e+00   5.55500303e+01   2.08724098e+00   2.11940670e+00   1.51542020e+00   1.42896700e+00   1.50286248e+00   1.51729835e+00   1.56446491e+00   1.54231019e+00   1.43185605e+00   1.44234629e+00   1.54487675e+00   1.42474467e+00   1.52321474e+00   1.57297636e+00   1.57588571e+00   1.57210520e+00   1.61962558e+00   1.56370992e+00   1.61075748e+00   1.55153820e+00   1.56952031e+00   1.52813896e+00   1.58684204e+00   1.53774778e+00   1.54011656e+00   1.48787149e+00   1.55274834e+00   1.50218626e+00   1.58996437e+00   1.47195945e+00   1.54377857e+00   1.42925747e+00   1.53944315e+00   1.44236133e+00   1.45076345e+00   1.47632252e+00   1.42325579e+00   1.45347244e+00   1.41961976e+00   1.45499817e+00   1.40632483e+00   1.42824830e+00   1.37050877e+00   1.40156703e+00   1.39447443e+00   1.42669098e+00   1.46393489e+00   1.46891281e+00   1.55864867e+00   1.60041232e+00   1.35325878e+00   1.26083294e+00   1.26218706e+00   1.28698848e+00   1.37696864e+00   1.51440220e+00   1.56754121e+00   1.64258203e+00   2.08102242e+00
0.00000000e+00   0.00000000e+00   0.00000000e+00   1.85670579e+00   2.00534180e+00   0.00000000e+00   0.00000000e+00   5.88551636e-01   4.48504032e-01   3.86017498e-01   4.80194710e-01   0.00000000e+00   0.00000000e+00   0.00000000e+00   0.00000000e+00   0.00000000e+00   0.00000000e+00   0.00000000e+00   0.00000000e+00   0.00000000e+00   0.00000000e+00   0.00000000e+00   0.00000000e+00   0.00000000e+00   0.00000000e+00   0.00000000e+00   0.00000000e+00   0.00000000e+00   0.00000000e+00   0.00000000e+00   0.00000000e+00   0.00000000e+00   0.00000000e+00   1.34978820e-01   1.64409984e-01   1.84627773e-01   2.10841947e-01   2.30246898e-01   2.34528558e-01   2.38517963e-01   2.47174097e-01   2.56698371e-01   0.00000000e+00   0.00000000e+00   0.00000000e+00   0.00000000e+00   0.00000000e+00   2.57120488e+00   2.18779922e+00   2.19652143e+00   2.16804887e+00   2.19416031e+00   2.25317232e+00   2.12740911e+00   2.23618632e+00   2.08938047e+00   1.41113833e+00   1.50902220e+00   1.03363582e-01   0.00000000e+00   0.00000000e+00   0.00000000e+00   0.00000000e+00   0.00000000e+00   0.00000000e+00   0.00000000e+00   0.00000000e+00   0.00000000e+00   0.00000000e+00   0.00000000e+00   0.00000000e+00   0.00000000e+00   0.00000000e+00   0.00000000e+00   0.00000000e+00   0.00000000e+00   0.00000000e+00   0.00000000e+00   0.00000000e+00   0.00000000e+00   0.00000000e+00   0.00000000e+00   0.00000000e+00   0.00000000e+00   0.00000000e+00   0.00000000e+00   0.00000000e+00   0.00000000e+00   0.00000000e+00   0.00000000e+00   0.00000000e+00   0.00000000e+00   0.00000000e+00   0.00000000e+00   0.00000000e+00   0.00000000e+00   8.39559654e-02   8.63093906e-02   7.72219386e-02   1.57234029e-01   2.17297421e+00   1.95954734e+00   1.28238461e+00   1.44887956e+00   1.45003467e+00   1.18529771e+00   8.37690618e-01
0.00000000e+00   0.00000000e+00   0.00000000e+00   2.05690262e+00   2.82467338e+00   0.00000000e+00   7.08442547e-01   6.20486123e-01   5.43184677e-01   4.75554640e-01   4.12277662e-01   6.34266585e-01   0.00000000e+00   0.00000000e+00   0.00000000e+00   0.00000000e+00   0.00000000e+00   0.00000000e+00   0.00000000e+00   0.00000000e+00   0.00000000e+00   0.00000000e+00   0.00000000e+00   0.00000000e+00   0.00000000e+00   0.00000000e+00   0.00000000e+00   0.00000000e+00   0.00000000e+00   0.00000000e+00   0.00000000e+00   0.00000000e+00   0.00000000e+00   0.00000000e+00   0.00000000e+00   1.42366598e-01   1.66000195e-01   1.87248198e-01   2.11967592e-01   2.24580469e-01   2.33614964e-01   2.31745263e-01   2.36370606e-01   2.27995903e-01   2.21501563e-01   2.16636206e-01   2.10178310e-01   2.08394373e-01   2.00563539e-01   2.00525667e-01   1.93148932e-01   1.82740399e-01   1.73419394e-01   1.73389838e-01   1.67992391e-01   1.56048960e-01   1.44518691e-01   1.40493794e-01   1.43497132e-01   1.39675088e-01   1.39256510e-01   1.44532648e-01   1.40726391e-01   1.57937914e-01   1.48375095e-01   2.00596112e-01   1.67088110e-01   1.55428604e-01   0.00000000e+00   2.15731933e-01   1.68700109e-01   0.00000000e+00   2.29567281e-01   0.00000000e+00   0.00000000e+00   0.00000000e+00   0.00000000e+00   0.00000000e+00   0.00000000e+00   0.00000000e+00   0.00000000e+00   0.00000000e+00   0.00000000e+00   0.00000000e+00   0.00000000e+00   0.00000000e+00   0.00000000e+00   0.00000000e+00   0.00000000e+00   0.00000000e+00   0.00000000e+00   0.00000000e+00   0.00000000e+00   0.00000000e+00   0.00000000e+00   0.00000000e+00   0.00000000e+00   0.00000000e+00   0.00000000e+00   0.00000000e+00   0.00000000e+00   0.00000000e+00   0.00000000e+00   0.00000000e+00   0.00000000e+00   0.00000000e+00   0.00000000e+00   0.00000000e+00   0.00000000e+00   0.00000000e+00   0.00000000e+00   0.00000000e+00   0.00000000e+00   0.00000000e+00   0.00000000e+00   0.00000000e+00   0.00000000e+00   0.00000000e+00   0.00000000e+00   0.00000000e+00   0.00000000e+00   0.00000000e+00   0.00000000e+00   0.00000000e+00   0.00000000e+00   0.00000000e+00   0.00000000e+00   0.00000000e+00   0.00000000e+00   7.59053086e-02   0.00000000e+00   0.00000000e+00   2.01589088e+00   1.36277027e+00   1.29431761e+00   1.35655410e+00   1.35556917e+00   1.34474485e+00   1.27781897e+00   1.26646353e+00   1.21720298e+00
0.00000000e+00   0.00000000e+00   0.00000000e+00   2.29644835e+00   2.12324111e+00   2.13550378e+00   7.39754208e-01   6.15318250e-01   5.22427604e-01   0.00000000e+00   0.00000000e+00   0.00000000e+00   0.00000000e+00   0.00000000e+00   0.00000000e+00   0.00000000e+00   0.00000000e+00   0.00000000e+00   0.00000000e+00   0.00000000e+00   0.00000000e+00   0.00000000e+00   0.00000000e+00   0.00000000e+00   0.00000000e+00   0.00000000e+00   0.00000000e+00   0.00000000e+00   0.00000000e+00   0.00000000e+00   0.00000000e+00   0.00000000e+00   1.44260903e-01   1.65610941e-01   1.92578083e-01   2.06551025e-01   2.19552199e-01   2.08729928e-01   2.18571762e-01   2.14484907e-01   2.13928289e-01   2.03127160e-01   1.88938918e-01   1.72102075e-01   1.76139691e-01   1.65108464e-01   1.73426657e-01   1.63025378e-01   1.65880423e-01   1.58512600e-01   1.62607487e-01   1.56231788e-01   1.58440658e-01   1.51162113e-01   1.57142681e-01   1.50719254e-01   1.52225839e-01   1.47737886e-01   1.50454469e-01   1.54578235e-01   1.48480476e-01   1.62354481e-01   1.54493358e-01   1.81303258e-01   1.62732694e-01   1.60185328e-01   2.12126985e-01   1.73906223e-01   1.67261187e-01   0.00000000e+00   2.15529729e-01   1.87255244e-01   0.00000000e+00   0.00000000e+00   0.00000000e+00   0.00000000e+00   0.00000000e+00   0.00000000e+00   0.00000000e+00   0.00000000e+00   0.00000000e+00   0.00000000e+00   0.00000000e+00   0.00000000e+00   0.00000000e+00   0.00000000e+00   0.00000000e+00   0.00000000e+00   0.00000000e+00   0.00000000e+00   0.00000000e+00   0.00000000e+00   0.00000000e+00   0.00000000e+00   0.00000000e+00   0.00000000e+00   0.00000000e+00   0.00000000e+00   0.00000000e+00   0.00000000e+00   0.00000000e+00   0.00000000e+00   0.00000000e+00   0.00000000e+00   0.00000000e+00   0.00000000e+00   0.00000000e+00   0.00000000e+00   0.00000000e+00   0.00000000e+00   0.00000000e+00   0.00000000e+00   0.00000000e+00   0.00000000e+00   0.00000000e+00   0.00000000e+00   0.00000000e+00   0.00000000e+00   0.00000000e+00   0.00000000e+00   0.00000000e+00   0.00000000e+00   0.00000000e+00   0.00000000e+00   0.00000000e+00   0.00000000e+00   0.00000000e+00   0.00000000e+00   0.00000000e+00   0.00000000e+00   0.00000000e+00   0.00000000e+00   0.00000000e+00   0.00000000e+00   0.00000000e+00   9.91465690e-02   0.00000000e+00   5.76826425e-01   0.00000000e+00   1.43296626e+00   1.91062358e+00   1.39460370e+00   1.52413367e+00   1.31761002e+00   1.32002093e+00   1.24320338e+00   1.21364246e+00   8.26544254e-01
0.00000000e+00   0.00000000e+00   0.00000000e+00   0.00000000e+00   3.74338347e+00   2.28301266e+00   4.68283629e+00   6.90220077e-01   5.72256361e-01   5.14503868e-01   0.00000000e+00   0.00000000e+00   0.00000000e+00   0.00000000e+00   0.00000000e+00   0.00000000e+00   0.00000000e+00   0.00000000e+00   0.00000000e+00   0.00000000e+00   0.00000000e+00   0.00000000e+00   0.00000000e+00   0.00000000e+00   0.00000000e+00   0.00000000e+00   0.00000000e+00   0.00000000e+00   0.00000000e+00   0.00000000e+00   0.00000000e+00   0.00000000e+00   0.00000000e+00   0.00000000e+00   2.05377973e-01   1.67480674e-01   1.92024461e-01   2.09989813e-01   2.13124387e-01   2.08553990e-01   2.15030749e-01   2.07092067e-01   2.05996946e-01   2.04947406e-01   1.99732369e-01   1.78811571e-01   1.78319639e-01   1.78041918e-01   1.71684612e-01   1.76017762e-01   1.66667437e-01   1.74147804e-01   1.62153554e-01   1.68508498e-01   1.59041684e-01   1.63719843e-01   1.57709662e-01   1.64081920e-01   1.56928397e-01   1.60893127e-01   1.60152266e-01   1.56953301e-01   1.63883761e-01   1.59556999e-01   1.73025414e-01   1.67240076e-01   1.99349311e-01   1.74613847e-01   0.00000000e+00   2.14811091e-01   1.89288321e-01   0.00000000e+00   2.63198582e-01   2.34148770e-01   0.00000000e+00   0.00000000e+00   0.00000000e+00   0.00000000e+00   0.00000000e+00   0.00000000e+00   0.00000000e+00   0.00000000e+00   0.00000000e+00   0.00000000e+00   0.00000000e+00   0.00000000e+00   0.00000000e+00   0.00000000e+00   0.00000000e+00   0.00000000e+00   0.00000000e+00   0.00000000e+00   0.00000000e+00   0.00000000e+00   0.00000000e+00   0.00000000e+00   0.00000000e+00   0.00000000e+00   0.00000000e+00   0.00000000e+00   0.00000000e+00   0.00000000e+00   0.00000000e+00   0.00000000e+00   0.00000000e+00   0.00000000e+00   0.00000000e+00   0.00000000e+00   0.00000000e+00   0.00000000e+00   0.00000000e+00   0.00000000e+00   0.00000000e+00   0.00000000e+00   0.00000000e+00   0.00000000e+00   0.00000000e+00   0.00000000e+00   0.00000000e+00   0.00000000e+00   0.00000000e+00   0.00000000e+00   0.00000000e+00   0.00000000e+00   0.00000000e+00   0.00000000e+00   0.00000000e+00   0.00000000e+00   0.00000000e+00   0.00000000e+00   0.00000000e+00   0.00000000e+00   0.00000000e+00   0.00000000e+00   0.00000000e+00   0.00000000e+00   0.00000000e+00   0.00000000e+00   0.00000000e+00   0.00000000e+00   1.23853017e-01   0.00000000e+00   0.00000000e+00   2.34070748e+00   1.56108640e+00   1.39937917e+00   1.50835837e+00   1.35426457e+00   1.35226180e+00   1.35221418e+00   1.35156684e+00   1.36176296e+00   1.32402158e+00   1.38866356e+00   1.34792046e+00   1.39743913e+00   1.28630293e+00
0.00000000e+00   0.00000000e+00   0.00000000e+00   0.00000000e+00   2.63869870e+00   2.24833015e+00   3.12626547e+00   1.31332631e+00   7.46361090e-01   4.97529194e-01   4.92094399e-01   0.00000000e+00   0.00000000e+00   0.00000000e+00   0.00000000e+00   0.00000000e+00   0.00000000e+00   0.00000000e+00   0.00000000e+00   0.00000000e+00   0.00000000e+00   2.78668338e-01   1.87047904e-01   0.00000000e+00   0.00000000e+00   0.00000000e+00   0.00000000e+00   0.00000000e+00   0.00000000e+00   0.00000000e+00   0.00000000e+00   0.00000000e+00   0.00000000e+00   0.00000000e+00   0.00000000e+00   0.00000000e+00   1.61565481e-01   1.77399085e-01   1.98616975e-01   2.09654927e-01   2.06306941e-01   2.10765605e-01   1.89966429e-01   1.86186341e-01   1.83626645e-01   1.75695154e-01   1.81208054e-01   1.71459091e-01   1.72698028e-01   1.69712603e-01   1.71610435e-01   1.65969240e-01   1.68707715e-01   1.71419679e-01   1.64692490e-01   1.76612931e-01   1.71818939e-01   1.91248179e-01   1.75837031e-01   2.04777541e-01   1.89156010e-01   0.00000000e+00   2.20912977e-01   2.09578099e-01   0.00000000e+00   3.42809620e-01   2.46920950e-01   0.00000000e+00   0.00000000e+00   0.00000000e+00   0.00000000e+00   0.00000000e+00   0.00000000e+00   0.00000000e+00   0.00000000e+00   0.00000000e+00   0.00000000e+00   0.00000000e+00   0.00000000e+00   0.00000000e+00   0.00000000e+00   0.00000000e+00   0.00000000e+00   0.00000000e+00   0.00000000e+00   0.00000000e+00   0.00000000e+00   0.00000000e+00   0.00000000e+00   0.00000000e+00   0.00000000e+00   0.00000000e+00   0.00000000e+00   0.00000000e+00   0.00000000e+00   0.00000000e+00   0.00000000e+00   0.00000000e+00   0.00000000e+00   0.00000000e+00   0.00000000e+00   0.00000000e+00   0.00000000e+00   0.00000000e+00   0.00000000e+00   0.00000000e+00   0.00000000e+00   0.00000000e+00   0.00000000e+00   0.00000000e+00   0.00000000e+00   0.00000000e+00   0.00000000e+00   0.00000000e+00   0.00000000e+00   0.00000000e+00   0.00000000e+00   0.00000000e+00   0.00000000e+00   0.00000000e+00   0.00000000e+00   0.00000000e+00   0.00000000e+00   0.00000000e+00   0.00000000e+00   0.00000000e+00   0.00000000e+00   0.00000000e+00   0.00000000e+00   0.00000000e+00   0.00000000e+00   0.00000000e+00   0.00000000e+00   0.00000000e+00   0.00000000e+00   0.00000000e+00   1.02046538e-01   0.00000000e+00   0.00000000e+00   0.00000000e+00   1.98761011e+00   1.65676858e+00   2.05510432e+00   1.39668527e+00   1.41061322e+00   1.42084950e+00   1.42085358e+00   1.37804359e+00   1.40307646e+00   1.45017099e+00   1.40686264e+00   1.48194361e+00   1.46413645e+00   1.41515367e+00   1.49730211e+00   1.49364438e+00   1.21422357e+00
0.00000000e+00   0.00000000e+00   0.00000000e+00   0.00000000e+00   3.00964982e+00   2.33233026e+00   3.00751733e+00   1.56907575e+00   7.48155361e-01   5.07253823e-01   0.00000000e+00   0.00000000e+00   0.00000000e+00   0.00000000e+00   0.00000000e+00   0.00000000e+00   0.00000000e+00   0.00000000e+00   0.00000000e+00   0.00000000e+00   3.11104340e-01   1.95816212e-01   0.00000000e+00   0.00000000e+00   0.00000000e+00   0.00000000e+00   0.00000000e+00   0.00000000e+00   0.00000000e+00   0.00000000e+00   0.00000000e+00   0.00000000e+00   0.00000000e+00   0.00000000e+00   1.78625948e-01   1.86424592e-01   2.02217640e-01   2.10112025e-01   1.96923412e-01   2.05115188e-01   1.92291910e-01   1.99243655e-01   1.86036810e-01   1.84889028e-01   1.80111459e-01   1.83317751e-01   1.73315048e-01   1.74792238e-01   1.77595873e-01   1.73581042e-01   1.83455309e-01   1.78554521e-01   1.95403742e-01   1.85695990e-01   2.15995998e-01   1.97851158e-01   2.57529325e-01   2.22059571e-01   0.00000000e+00   2.97752009e-01   2.60373902e-01   0.00000000e+00   0.00000000e+00   0.00000000e+00   0.00000000e+00   0.00000000e+00   0.00000000e+00   0.00000000e+00   0.00000000e+00   0.00000000e+00   0.00000000e+00   0.00000000e+00   0.00000000e+00   0.00000000e+00   0.00000000e+00   0.00000000e+00   0.00000000e+00   0.00000000e+00   0.00000000e+00   0.00000000e+00   0.00000000e+00   0.00000000e+00   0.00000000e+00   0.00000000e+00   0.00000000e+00   0.00000000e+00   0.00000000e+00   0.00000000e+00   0.00000000e+00   0.00000000e+00   0.00000000e+00   0.00000000e+00   0.00000000e+00   0.00000000e+00   0.00000000e+00   0.00000000e+00   0.00000000e+00   0.00000000e+00   0.00000000e+00   0.00000000e+00   0.00000000e+00   0.00000000e+00   0.00000000e+00   0.00000000e+00   0.00000000e+00   0.00000000e+00   0.00000000e+00   0.00000000e+00   0.00000000e+00   0.00000000e+00   0.00000000e+00   0.00000000e+00   0.00000000e+00   0.00000000e+00   0.00000000e+00   0.00000000e+00   0.00000000e+00   0.00000000e+00   0.00000000e+00   0.00000000e+00   0.00000000e+00   0.00000000e+00   0.00000000e+00   0.00000000e+00   0.00000000e+00   0.00000000e+00   0.00000000e+00   2.17337875e-01   0.00000000e+00   1.21233141e-01   1.21333547e-01   0.00000000e+00   0.00000000e+00   0.00000000e+00   0.00000000e+00   0.00000000e+00   0.00000000e+00   0.00000000e+00   1.20078752e-01   0.00000000e+00   1.93775676e+00   1.89410270e+00   1.48937848e+00   1.67271789e+00   1.85761023e+00   2.10495568e+00   1.46772900e+00   1.59364144e+00   1.59421747e+00   1.51426029e+00   1.46349166e+00   1.48537874e+00   1.53322255e+00   1.48927236e+00   1.56619513e+00   1.55997766e+00   1.57327227e+00   1.24393837e+00
0.00000000e+00   0.00000000e+00   0.00000000e+00   0.00000000e+00   2.27862200e+00   2.27809208e+00   2.80173151e+00   2.09614430e+00   5.00436879e-01   1.21281148e+00   0.00000000e+00   0.00000000e+00   0.00000000e+00   0.00000000e+00   0.00000000e+00   0.00000000e+00   0.00000000e+00   0.00000000e+00   0.00000000e+00   0.00000000e+00   2.90479287e-01   1.78588883e-01   0.00000000e+00   0.00000000e+00   0.00000000e+00   0.00000000e+00   0.00000000e+00   0.00000000e+00   0.00000000e+00   0.00000000e+00   0.00000000e+00   0.00000000e+00   0.00000000e+00   0.00000000e+00   1.97599825e-01   1.85508515e-01   2.05020964e-01   1.97965101e-01   1.99047145e-01   1.94088018e-01   2.00839378e-01   1.86111166e-01   1.96836238e-01   1.89030396e-01   1.80966320e-01   1.92569454e-01   1.84009942e-01   1.82644651e-01   1.87728449e-01   1.83101870e-01   1.94741449e-01   1.89122187e-01   2.06769597e-01   1.94691982e-01   2.21751453e-01   2.05121499e-01   0.00000000e+00   2.32973894e-01   0.00000000e+00   2.80130997e-01   2.51285142e-01   0.00000000e+00   0.00000000e+00   0.00000000e+00   0.00000000e+00   0.00000000e+00   0.00000000e+00   0.00000000e+00   0.00000000e+00   0.00000000e+00   0.00000000e+00   0.00000000e+00   0.00000000e+00   0.00000000e+00   0.00000000e+00   0.00000000e+00   0.00000000e+00   0.00000000e+00   0.00000000e+00   0.00000000e+00   0.00000000e+00   0.00000000e+00   0.00000000e+00   0.00000000e+00   0.00000000e+00   0.00000000e+00   0.00000000e+00   0.00000000e+00   0.00000000e+00   0.00000000e+00   0.00000000e+00   0.00000000e+00   0.00000000e+00   0.00000000e+00   0.00000000e+00   0.00000000e+00   0.00000000e+00   0.00000000e+00   0.00000000e+00   0.00000000e+00   0.00000000e+00   0.00000000e+00   0.00000000e+00   0.00000000e+00   0.00000000e+00   0.00000000e+00   0.00000000e+00   0.00000000e+00   0.00000000e+00   0.00000000e+00   0.00000000e+00   0.00000000e+00   0.00000000e+00   0.00000000e+00   0.00000000e+00   0.00000000e+00   0.00000000e+00   0.00000000e+00   0.00000000e+00   0.00000000e+00   0.00000000e+00   0.00000000e+00   0.00000000e+00   0.00000000e+00   0.00000000e+00   0.00000000e+00   0.00000000e+00   0.00000000e+00   0.00000000e+00   0.00000000e+00   0.00000000e+00   0.00000000e+00   0.00000000e+00   0.00000000e+00   2.30047522e-01   0.00000000e+00   1.14779235e-01   0.00000000e+00   0.00000000e+00   1.66641285e+00   0.00000000e+00   0.00000000e+00   0.00000000e+00   0.00000000e+00   0.00000000e+00   0.00000000e+00   0.00000000e+00   0.00000000e+00   0.00000000e+00   0.00000000e+00   1.76965860e+00   1.51261878e+00   1.50353941e+00   1.61682303e+00   1.80856203e+00   2.69707626e+00   1.53349516e+00   1.77325259e+00   1.83264952e+00   1.83372424e+00   1.69489755e+00   1.50159972e+00   1.58167699e+00   1.63946374e+00   1.64311786e+00   1.58363668e+00   1.68308954e+00   1.66128934e+00   1.27243917e+00
